Security,Date,Open,High,Low,Close,Adj Close,Volume
ABC,2002/1/19,134.130005,137.748993,133.029999,136.699997,136.699997,16708400
ABC,2003/1/19,134.270004,134.869995,129.830002,130.600006,130.600006,19531300
ABC,2004/1/19,134.259995,141.080002,133.660004,139.75,139.75,22845400
ABC,2007/1/19,140.550003,144.080002,139.009995,143.100006,143.100006,17239000
ABC,2008/1/19,145,147.550003,142.059998,146.789993,146.789993,16487600
ABC,2009/1/19,149.889999,153.350006,148.5,151.919998,151.919998,20214100
ABC,2010/1/19,149.809998,152.029999,148.880005,151.690002,151.690002,14221100
ABC,2011/1/19,151.830002,153.380005,150.139999,151.320007,151.320007,9589400
ABC,2014/1/19,148.5,150.570007,146.539993,149.270004,149.270004,13356700
ABC,2015/1/19,150.679993,154.169998,149.964005,150.880005,150.880005,15003100
ABC,2016/1/19,152.809998,155.389999,151.5,154.839996,154.839996,14810800
ABC,2017/1/19,152.110001,158.550003,151.899994,155.970001,155.970001,16153200
ABC,2018/1/19,158.449997,159.490005,154.729996,157.020004,157.020004,19611400
ABC,2022/1/19,154.399994,155.440002,150.207001,152.149994,152.149994,21295000
ABC,2023/1/19,154.649994,155.179993,150.949997,152.029999,152.029999,10195800
ABC,2024/1/19,151.470001,156,151.210007,155.860001,155.860001,10997900
ABC,2025/1/19,158.910004,160.5,157.429993,159.210007,159.210007,16451800
ABC,2028/1/19,157.800003,159.690002,155.300003,158.919998,158.919998,10141100
ABC,2029/1/19,159.039993,160.375,155.919998,156.880005,156.880005,18348200
ABC,1930/1/19,161.289993,167.839996,160.5,166.820007,166.820007,36997700
ABC,1931/1/19,167.800003,169.729996,165.699997,168.490005,168.490005,21219500
ABC,2001/2/19,168,169.399994,167.630005,167.970001,167.970001,10771500
ABC,2004/2/19,166.320007,167.550003,165.610001,166.699997,166.699997,7380400
ABC,2005/2/19,168.550003,171.949997,168,171.830002,171.830002,12801800
ABC,2006/2/19,171.860001,173.089996,169.990005,171.520004,171.520004,11267800
ABC,2007/2/19,169.160004,169.610001,164.335999,166.960007,166.960007,11911100
ABC,2008/2/19,163.830002,167.649994,163.75,167.360001,167.360001,8331500
ABC,2011/2/19,168.850006,170.330002,167.449997,167.449997,167.449997,7260300
ABC,2012/2/19,169.600006,170.490005,168.610001,168.710007,168.710007,8594400
ABC,2013/2/19,169.910004,171.050003,168.990005,169.399994,169.399994,8661800
ABC,2014/2/19,167.639999,168.5,166.610001,168.380005,168.380005,8722100
ABC,2015/2/19,168.610001,168.770004,165.410004,166.149994,166.149994,12099500
ABC,2019/2/19,166.979996,171.149994,166.5,170.179993,170.179993,12982300
ABC,2020/2/19,171,172.679993,170.610001,170.710007,170.710007,12454900
ABC,2021/2/19,171,171.779999,169.800003,171.660004,171.660004,8434800
ABC,2022/2/19,172.800003,177.020004,172.520004,176.919998,176.919998,16175600
ABC,2025/2/19,181.259995,183.720001,180.729996,183.25,183.25,22831800
ABC,2026/2/19,179.789993,184.350006,179.369995,183.539993,183.539993,13871000
ABC,2027/2/19,181.720001,184.929993,180.880005,184.580002,184.580002,16741600
ABC,2028/2/19,183.009995,184.300003,181.470001,183.029999,183.029999,12370400
ABC,2001/3/19,185.089996,186.899994,183.380005,183.880005,183.880005,14348500
ABC,2004/3/19,186,187.339996,184.460007,187.25,187.25,14761700
ABC,2005/3/19,186.940002,188.080002,185,185,185,11513200
ABC,2006/3/19,184.380005,185.589996,183.020004,184.169998,184.169998,10009100
ABC,2007/3/19,180.910004,181.800003,176.729996,177.320007,177.320007,16488900
ABC,2008/3/19,171.565002,175.350006,171.565002,175.029999,175.029999,14674200
ABC,2011/3/19,177.830002,181.720001,177.580002,180.410004,180.410004,13764000
ABC,2012/3/19,182.039993,182.179993,179.509995,180.630005,180.630005,8660000
ABC,2013/3/19,180.729996,182.535004,179.259995,180.699997,180.699997,8868200
ABC,2014/3/19,179.059998,180.820007,178.009995,180.360001,180.360001,9272000
ABC,2015/3/19,180.660004,181.449997,179.660004,180.970001,180.970001,10844100
ABC,2018/3/19,181.929993,182.889999,180.759995,181.830002,181.830002,7847800
ABC,2019/3/19,181.630005,183.360001,180.850006,182.139999,182.139999,10238600
ABC,2020/3/19,180.940002,181.949997,178.429993,181.279999,181.279999,15901500
ABC,2021/3/19,178.949997,181.729996,178.520004,181.5,181.5,9754500
ABC,2022/3/19,179.770004,180.479996,175.335999,176.259995,176.259995,11688400
ABC,2025/3/19,174.330002,178.899994,174.100006,178.770004,178.770004,7511400
ABC,2026/3/19,179.699997,180.649994,177.095001,178.080002,178.080002,7897900
ABC,2027/3/19,177.699997,179.830002,176.912994,177.029999,177.029999,8371000
ABC,2028/3/19,177.470001,178.529999,175.970001,177.729996,177.729996,7146800
ABC,2029/3/19,180.729996,182.600006,179,182.449997,182.449997,13850900
ABC,2001/4/19,185.089996,185.559998,180.889999,180.889999,180.889999,12714800
ABC,2002/4/19,181.460007,183.563004,180.949997,181.740005,181.740005,8021500
ABC,2003/4/19,179.509995,180.699997,176.759995,178.320007,178.320007,26811600
ABC,2004/4/19,177.039993,181.960007,176.889999,181.070007,181.070007,16993200
ABC,2005/4/19,182.509995,185.5,182,185.350006,185.350006,18705000
ABC,2008/4/19,184.190002,187.820007,184.009995,186.5,186.5,14725600
ABC,2009/4/19,186.490005,187.889999,186.160004,187.190002,187.190002,11578200
ABC,2010/4/19,186.690002,187.399994,184,186.190002,186.190002,10655000
ABC,2011/4/19,185.149994,186.059998,183.75,184.979996,184.979996,8900300
ABC,2012/4/19,187.710007,189.789993,187.139999,188.910004,188.910004,12600000
ABC,2015/4/19,188.059998,188.169998,182.559998,183.070007,183.070007,14616600
ABC,2016/4/19,185.550003,185.789993,183.399994,185.779999,185.779999,12195900
ABC,2017/4/19,187.339996,188.199997,185.779999,187.550003,187.550003,11614200
ABC,2018/4/19,186.410004,187.279999,185.389999,186.940002,186.940002,7882500
ABC,2022/4/19,184.5,186.470001,183.610001,185.380005,185.380005,8677800
ABC,2023/4/19,186,188.149994,185.440002,187.289993,187.289993,11410600
ABC,2024/4/19,186.759995,186.899994,184.580002,185.669998,185.669998,9085300
ABC,2025/4/19,185.240005,188.130005,183.955002,187.880005,187.880005,10328900
ABC,2026/4/19,187.880005,188.740005,185.509995,187.089996,187.089996,9421100
ABC,2029/4/19,187.419998,188,185.759995,186.940002,186.940002,8660600
ABC,1930/4/19,186.300003,188.25,183.820007,185.570007,185.570007,15076500
ABC,2001/5/19,186.75,193.195007,185.880005,189.309998,189.309998,17397500
ABC,2002/5/19,189.419998,192.699997,186.649994,190.389999,190.389999,11468100
ABC,2003/5/19,191.880005,195.720001,191.880005,195.210007,195.210007,14521100
ABC,2006/5/19,185.169998,189,184.830002,188.240005,188.240005,23941200
ABC,2007/5/19,186.050003,186.449997,179.630005,181.429993,181.429993,22663200
ABC,2008/5/19,180.949997,183.199997,178.580002,179.589996,179.589996,16611100
ABC,2009/5/19,175.429993,180.695007,173.070007,179.039993,179.039993,22727800
ABC,2010/5/19,180.179993,180.789993,174.100006,178,178,18987000
ABC,2013/5/19,169.789993,172.470001,168.779999,170.009995,170.009995,22330700
ABC,2014/5/19,172.75,175.149994,171.479996,174.839996,174.839996,17874100
ABC,2015/5/19,177.059998,180.240005,173.320999,177.600006,177.600006,37610400
ABC,2016/5/19,178.179993,178.25,174.75,175.570007,175.570007,20579200
ABC,2017/5/19,171.690002,172.289993,168.490005,169.570007,169.570007,22539400
ABC,2020/5/19,164.440002,164.570007,160.020004,160.649994,160.649994,33413800
ABC,2021/5/19,163.160004,165.589996,162.520004,163.429993,163.429993,22006100
ABC,2022/5/19,162.410004,162.820007,158.070007,158.830002,158.830002,25831200
ABC,2023/5/19,155.449997,158.479996,154.410004,156,156,26891900
ABC,2024/5/19,157.615005,158.429993,154.899994,155,155,21489700
ABC,2028/5/19,156.399994,157.070007,153.220001,154.809998,154.809998,38603000
ABC,2029/5/19,153.580002,154.384995,150.710007,152.479996,152.479996,30073100
ABC,1930/5/19,152.360001,153.369995,150.25,151.070007,151.070007,17344700
ABC,1931/5/19,149.630005,150.679993,147.949997,149.259995,149.259995,26881200
ABC,2003/6/19,149.600006,151.770004,148.845001,149.910004,149.910004,25254400
ABC,2004/6/19,151.559998,155.199997,150.639999,154.149994,154.149994,27417200
ABC,2005/6/19,155.169998,156.110001,149.309998,151.649994,151.649994,23208600
ABC,2006/6/19,152,152.699997,150.570007,151.5,151.5,15763000
ABC,2007/6/19,152.949997,155.690002,152.214005,154.229996,154.229996,17817800
ABC,2010/6/19,158.779999,161.979996,157.399994,159.850006,159.850006,36473300
ABC,2011/6/19,164.199997,165.679993,161.925003,162.649994,162.649994,23408400
ABC,2012/6/19,160.470001,161.699997,158.809998,160.039993,160.039993,16329300
ABC,2013/6/19,160.550003,161.320007,159.800003,160.330002,160.330002,17571400
ABC,2014/6/19,158.369995,158.710007,157.229996,158.100006,158.100006,14981600
ABC,2017/6/19,157.529999,160.550003,157.419998,159.910004,159.910004,16079800
ABC,2018/6/19,162.889999,169.110001,161.949997,165.509995,165.509995,35754800
ABC,2019/6/19,167.770004,167.899994,163.419998,165.460007,165.460007,20798100
ABC,2020/6/19,170.190002,170.479996,166.274994,168.25,168.25,24004700
ABC,2021/6/19,167.479996,169.470993,166.770004,167.550003,167.550003,17415800
ABC,2024/6/19,168.399994,168.880005,165.779999,168.100006,168.100006,18422600
ABC,2025/6/19,167.039993,167.339996,164.619995,165.800003,165.800003,20439200
ABC,2026/6/19,168.279999,171.240005,168.149994,168.990005,168.990005,22416400
ABC,2027/6/19,170.619995,171.979996,169.380005,170.899994,170.899994,18349400
ABC,2028/6/19,170.199997,170.889999,167.960007,169.449997,169.449997,19974300
XYZ,2002/1/19,112.010002,115.980003,111.690002,115.209999,112.546227,4239900
XYZ,2003/1/19,114.529999,114.879997,112.690002,112.910004,110.299408,4346700
XYZ,2004/1/19,114.910004,117.489998,114.440002,117.32,114.607445,4477800
XYZ,2007/1/19,117.5,118.830002,116.669998,118.150002,115.418259,3751200
XYZ,2008/1/19,119.660004,120.57,118.980003,119.830002,117.05941,4763600
XYZ,2009/1/19,120.910004,121.400002,119.870003,120.690002,117.899529,3633700
XYZ,2010/1/19,120.080002,121.860001,119.949997,121.790001,118.974091,3910000
XYZ,2011/1/19,121.580002,121.620003,120.199997,121.459999,118.651726,3722400
XYZ,2014/1/19,120.510002,120.650002,119.760002,120.389999,117.606468,5228700
XYZ,2015/1/19,120.959999,121.93,120.82,121.730003,118.915489,3507500
XYZ,2016/1/19,121.580002,122,120.830002,121.620003,118.808029,3841100
XYZ,2017/1/19,120.559998,122.410004,120.550003,122.190002,119.364853,5029900
XYZ,2018/1/19,123.269997,124.720001,122.709999,123.82,120.957161,6008500
XYZ,2022/1/19,123.300003,123.800003,121.540001,122.519997,119.68721,10052400
XYZ,2023/1/19,131.369995,135,130.309998,132.889999,129.817444,22063700
XYZ,2024/1/19,132.630005,133.210007,131.429993,132.529999,129.465775,6322900
XYZ,2025/1/19,132.869995,134.440002,132.429993,133.970001,130.872482,5707400
XYZ,2028/1/19,133.100006,134.809998,132.580002,134.270004,131.165558,5357700
XYZ,2029/1/19,134.289993,135.410004,133.600006,134.330002,131.224152,5037100
XYZ,1930/1/19,134,135.029999,133.25,134.380005,131.272995,4500900
XYZ,1931/1/19,134.449997,134.720001,133.740005,134.419998,131.312073,4884000
XYZ,2001/2/19,134.970001,135.199997,133.350006,134.100006,130.999481,3806000
XYZ,2004/2/19,134.020004,135.199997,132.990005,135.190002,132.06427,3966600
XYZ,2005/2/19,135.279999,135.820007,134.919998,135.550003,132.415955,5398900
XYZ,2006/2/19,135.220001,136.649994,135.169998,136.320007,133.168152,4879700
XYZ,2007/2/19,133.550003,134.470001,132.119995,133.190002,131.626465,4379400
XYZ,2008/2/19,132.339996,133.710007,132.190002,133.710007,132.140366,3249800
XYZ,2011/2/19,134.289993,135.149994,133.910004,133.990005,132.417084,3095100
XYZ,2012/2/19,135.149994,136.199997,134.860001,136.050003,134.452896,3317200
XYZ,2013/2/19,136.919998,137.919998,136.410004,137.520004,135.90564,4253000
XYZ,2014/2/19,137.169998,137.600006,136.210007,136.479996,134.877838,2789400
XYZ,2015/2/19,137.580002,138.190002,137.389999,138.029999,136.409653,3844100
XYZ,2019/2/19,137.809998,138.699997,137.360001,138.699997,137.071777,3385700
XYZ,2020/2/19,138.759995,139.240005,137.220001,138,136.380005,3802000
XYZ,2021/2/19,137.820007,138.350006,137.350006,137.839996,136.221878,2937300
XYZ,2022/2/19,138.729996,139.380005,138.429993,139.25,137.615326,3113700
XYZ,2025/2/19,140,140.470001,139.320007,139.460007,137.822861,3194200
XYZ,2026/2/19,139.669998,140.490005,139.470001,139.720001,138.079803,3060400
XYZ,2027/2/19,139.25,139.570007,138.399994,139.169998,137.53627,2530900
XYZ,2028/2/19,138.770004,139.059998,137.720001,138.130005,136.508484,3457800
XYZ,2001/3/19,139.309998,140.039993,138.639999,139.199997,137.565903,3030000
XYZ,2004/3/19,139.990005,140.080002,137.169998,138.429993,136.804947,3406900
XYZ,2005/3/19,138.369995,138.740005,137.559998,137.880005,136.261414,4250300
XYZ,2006/3/19,138.119995,138.389999,136.720001,136.979996,135.371964,2768300
XYZ,2007/3/19,136.610001,136.889999,134.630005,135.360001,133.770996,4358800
XYZ,2008/3/19,134.210007,135.240005,133.580002,135.089996,133.50415,3773600
XYZ,2011/3/19,136.029999,137.729996,135.839996,137.710007,136.093414,3939300
XYZ,2012/3/19,138.520004,139.699997,137.860001,138.279999,136.656708,3954700
XYZ,2013/3/19,138.050003,139.320007,137.850006,138.559998,136.933426,3173200
XYZ,2014/3/19,138.509995,138.940002,138.059998,138.789993,137.160721,2738600
XYZ,2015/3/19,139.369995,140.330002,139.229996,139.429993,137.793198,7153700
XYZ,2018/3/19,139.830002,140.369995,138.720001,140.210007,138.564056,3268500
XYZ,2019/3/19,140.960007,141.699997,140,140.490005,138.840775,3482300
XYZ,2020/3/19,140.529999,140.699997,138.979996,139.600006,137.961227,3649500
XYZ,2021/3/19,139.100006,142.119995,138.880005,141.440002,139.779617,3605400
XYZ,2022/3/19,140.970001,141.440002,138.899994,139.449997,137.812973,3877200
XYZ,2025/3/19,139.059998,139.910004,138.350006,139.179993,137.546143,2839800
XYZ,2026/3/19,139.929993,141.020004,139.419998,140.220001,138.573944,2553700
XYZ,2027/3/19,140.410004,140.490005,138.399994,139.240005,137.605453,3098200
XYZ,2028/3/19,139.910004,140.440002,139.100006,139.919998,138.277466,2663900
XYZ,2029/3/19,140.5,141.220001,140.149994,141.100006,139.443619,3101400
XYZ,2001/4/19,141.509995,143.410004,141.509995,143.300003,141.617783,3984300
XYZ,2002/4/19,143.350006,143.949997,142.600006,143,141.321304,2404800
XYZ,2003/4/19,143.649994,144.220001,143.009995,143.630005,141.943909,2681200
XYZ,2004/4/19,143.619995,144.139999,142.539993,142.779999,141.103882,2771100
XYZ,2005/4/19,143.289993,143.5,142.460007,143.279999,141.598022,2731800
XYZ,2008/4/19,143.020004,143.419998,142.869995,143.389999,141.706726,2118200
XYZ,2009/4/19,142.660004,142.949997,141.839996,142.110001,140.441757,3038500
XYZ,2010/4/19,142.199997,143.5,141.979996,143.020004,141.34108,2678000
XYZ,2011/4/19,143.800003,144.110001,143.029999,143.779999,142.092148,2942000
XYZ,2012/4/19,144.259995,144.440002,143.699997,144.350006,142.655457,2898900
XYZ,2015/4/19,144.399994,144.460007,143.270004,143.899994,142.210739,3603200
XYZ,2016/4/19,144.399994,145.389999,144.020004,145.139999,143.436188,6301700
XYZ,2017/4/19,137.369995,141.979996,136.259995,139.110001,137.476974,12525700
XYZ,2018/4/19,139,140.490005,138.699997,140.330002,138.682648,4960000
XYZ,2022/4/19,139.419998,140.559998,138.479996,138.889999,137.259552,4494000
XYZ,2023/4/19,139.149994,140.919998,138.940002,140.440002,138.791351,4462200
XYZ,2024/4/19,140.600006,141.309998,139.779999,139.949997,138.307098,2774900
XYZ,2025/4/19,139.699997,139.75,137.710007,138.630005,137.002609,2910100
XYZ,2026/4/19,139.339996,139.889999,138.809998,139.440002,137.803101,2319800
XYZ,2029/4/19,139.149994,139.630005,138.809998,139.050003,137.417679,2958300
XYZ,1930/4/19,139.110001,140.440002,138.679993,140.270004,138.623352,4638800
XYZ,2001/5/19,140.550003,141.809998,140.169998,140.559998,138.909943,3053700
XYZ,2002/5/19,140.5,141.279999,139.410004,139.589996,137.951324,3541400
XYZ,2003/5/19,139.699997,141,139.630005,140.25,138.603592,2579900
XYZ,2006/5/19,138.300003,140.690002,137.899994,140.380005,138.732071,2793300
XYZ,2007/5/19,139.149994,139.509995,136.190002,137.639999,136.024231,4726800
XYZ,2008/5/19,137.770004,138.699997,137.130005,138,136.380005,3818900
XYZ,2009/5/19,134.889999,135.580002,133.029999,135.339996,135.339996,4192700
XYZ,2010/5/19,134.880005,135.75,132.419998,135.320007,135.320007,3977600
XYZ,2013/5/19,133.279999,133.570007,130.960007,131.419998,131.419998,4958000
XYZ,2014/5/19,131.820007,134.320007,131.679993,133.309998,133.309998,3280400
XYZ,2015/5/19,132.589996,134.589996,132.369995,134.399994,134.399994,2551000
XYZ,2016/5/19,134.740005,136.110001,134.639999,135.880005,135.880005,3017300
XYZ,2017/5/19,134.679993,135.410004,133.940002,134.320007,134.320007,2619100
XYZ,2020/5/19,133.529999,135.429993,132.929993,135.119995,135.119995,3264500
XYZ,2021/5/19,136.119995,137.059998,135.789993,136.449997,136.449997,2503500
XYZ,2022/5/19,136,136.75,135.710007,136.350006,136.350006,1849800
XYZ,2023/5/19,135.130005,135.130005,130.440002,132.389999,132.389999,5343400
XYZ,2024/5/19,133.529999,134.25,131.589996,132.279999,132.279999,2596100
XYZ,2028/5/19,132.130005,132.639999,130.270004,130.460007,130.460007,4908800
XYZ,2029/5/19,130,130.279999,128.320007,129.690002,129.690002,3679000
XYZ,1930/5/19,129.740005,129.970001,128.929993,129.570007,129.570007,2741900
XYZ,1931/5/19,128.440002,128.440002,126.849998,126.989998,126.989998,3539300
XYZ,2003/6/19,127.099998,128.559998,127.059998,128.270004,128.270004,4266900
XYZ,2004/6/19,129.559998,132.740005,129.089996,132.690002,132.690002,3913500
XYZ,2005/6/19,133.380005,133.610001,130.470001,131.490005,131.490005,3161300
XYZ,2006/6/19,132.190002,132.649994,130.899994,132.220001,132.220001,2298200
XYZ,2007/6/19,132.470001,134.720001,132.210007,133.309998,133.309998,2553400
XYZ,2010/6/19,134.380005,135.350006,133.910004,134.740005,134.740005,2911300
XYZ,2011/6/19,135.320007,136.460007,135.050003,135.949997,135.949997,3407300
XYZ,2012/6/19,135.559998,135.940002,134.410004,134.869995,134.869995,2254700
XYZ,2013/6/19,135.130005,136.270004,135.089996,135.759995,135.759995,2955300
XYZ,2014/6/19,135.440002,135.880005,134.429993,135.149994,135.149994,2193300
XYZ,2017/6/19,135.389999,136.029999,134.699997,134.949997,134.949997,2194100
XYZ,2018/6/19,135.199997,137.190002,135.199997,136.380005,136.380005,2914700
XYZ,2019/6/19,136.429993,138.360001,136.240005,137.080002,137.080002,2382400
XYZ,2020/6/19,138.929993,139.539993,138.199997,138.850006,138.850006,3071000
XYZ,2021/6/19,138.440002,139.539993,138.389999,139.199997,139.199997,5288700
XYZ,2024/6/19,139.199997,140.149994,139.050003,139.350006,139.350006,2186000
XYZ,2025/6/19,139.460007,139.550003,138.130005,138.360001,138.360001,2801200
XYZ,2026/6/19,138.869995,139.679993,138.410004,138.520004,138.520004,2284600
XYZ,2027/6/19,138.720001,139.300003,137.949997,138.520004,138.520004,2149800
XYZ,2028/6/19,138.570007,139.139999,137.839996,137.899994,137.899994,6153900
ZZZ,2002/1/19,134.130005,137.748993,133.029999,136.699997,136.699997,0
ZZZ,2003/1/19,134.270004,134.869995,129.830002,130.600006,130.600006,0
ZZZ,2004/1/19,134.259995,141.080002,133.660004,139.75,139.75,0
ZZZ,2007/1/19,140.550003,144.080002,139.009995,143.100006,143.100006,0
ZZZ,2008/1/19,145,147.550003,142.059998,146.789993,146.789993,0
ZZZ,2009/1/19,149.889999,153.350006,148.5,151.919998,151.919998,0
ZZZ,2010/1/19,149.809998,152.029999,148.880005,151.690002,151.690002,0
